#-----------------------------------------------------------
# Vivado v2016.1 (64-bit)
# SW Build 1538259 on Fri Apr  8 15:45:23 MDT 2016
# IP Build 1537824 on Fri Apr  8 04:28:57 MDT 2016
# Start of session at: Wed Jul  6 12:54:12 2016
# Process ID: 19138
# Current directory: /home/Vinod/ssd-controller/NVMExpress/verilog
# Command line: vivado
# Log file: /home/Vinod/ssd-controller/NVMExpress/verilog/vivado.log
# Journal file: /home/Vinod/ssd-controller/NVMExpress/verilog/vivado.jou
#-----------------------------------------------------------
start_gui
exit
INFO: [Common 17-206] Exiting Vivado at Wed Jul  6 12:55:22 2016...
